Trabalho Regressão
…
Warning: package 'rlang' was built under R version 4.3.3

Extraindo métricas de desempenho.

collect_metrics(race_results) |> 
  filter(.metric == "rmse") |>
  arrange(mean)

# A tibble: 25 × 9
   wflow_id .config         preproc model .metric .estimator  mean     n std_err
   <chr>    <chr>           <chr>   <chr> <chr>   <chr>      <dbl> <int>   <dbl>
 1 rforest  Preprocessor1_… recipe  rand… rmse    standard    28.5    20   0.845
 2 rforest  Preprocessor1_… recipe  rand… rmse    standard    28.6    20   0.819
 3 rforest  Preprocessor1_… recipe  rand… rmse    standard    28.6    20   0.848
 4 rforest  Preprocessor1_… recipe  rand… rmse    standard    28.6    20   0.880
 5 rforest  Preprocessor1_… recipe  rand… rmse    standard    28.6    20   0.804
 6 rforest  Preprocessor1_… recipe  rand… rmse    standard    28.6    20   0.763
 7 tree     Preprocessor1_… recipe  deci… rmse    standard    31.0    20   0.987
 8 tree     Preprocessor1_… recipe  deci… rmse    standard    31.3    20   0.932
 9 tree     Preprocessor1_… recipe  deci… rmse    standard    31.4    20   1.05 
10 tree     Preprocessor1_… recipe  deci… rmse    standard    31.5    20   0.998
# ℹ 15 more rows
…
